Controler\Producto.class
View\NewJFrame$3.class
View\NewJFrame$6.class
View\NewJFrame.class
View\NewJFrame$5.class
View\NewJFrame$7.class
View\NewJFrame$1.class
View\NewJFrame$2.class
View\NewJFrame$4.class
View\NewJFrame$8.class
Model\ConexionBD.class
